[
  {"id": 1,
    "name":"aryan1",
    "weight":70.0,
    "height":170.0,
    "strength":70.0,
    "ability":"water",
    "color":"blue"
  },
  {"id": 2,
    "name":"aryan2",
    "weight":70.0,
    "height":170.0,
    "strength":70.0,
    "ability":"water",
    "color":"blue"
  },
  {"id": 3,
    "name":"aryan3",
    "weight":70.0,
    "height":170.0,
    "strength":70.0,
    "ability":"water",
    "color":"blue"
  }
]